Conv B csr2csc(unsorted) 2.735
# 3D_51448_3D.mtx,51448,51448,1056610,120130,936480,11.37,88.63,50.00,1,0.00,77.83,(-1|3)
$ 3D_51448_3D.mtx,1819.81,1854.24,1836.17,1848.80,1837.08,3.44,352.80,11.24,7.40,22.76,1815.93,1.31,5.97,2.73,7.92,4.08,14.58,3.59,0.46,0.92,10514149,154606,1438487,1453904,10415127,2.72,0.71,0.00,2.60,0.72,0.00,887.55,928.38
Conv B csr2csc(unsorted) 21.040
# af_shell9.mtx,504855,504855,17588875,6929881,10658994,39.40,60.60,50.00,1,0.00,91.51,(-7|15)
$ af_shell9.mtx,795.06,783.25,550.38,563.67,592.95,51.30,150.96,226.23,116.01,150.34,278.04,15.74,55.83,21.04,174.85,64.63,130.58,42.73,9.78,60.79,47560375,12510225,30439188,30439244,36997083,16.14,35.16,0.00,16.18,35.19,0.00,59.87,218.17
Conv B csr2csc(unsorted) 1.270
# cegb2802.mtx,2802,2802,277362,103758,173604,37.41,62.59,50.00,1,0.84,79.12,(-23|47)
$ cegb2802.mtx,28.26,30.79,24.81,25.48,23.68,2.62,6.12,5.93,4.62,6.56,12.64,0.49,3.30,1.27,3.14,1.82,4.52,1.88,0.80,3.39,810666,182254,531353,531445,755058,0.99,1.63,0.00,1.16,1.63,0.00,1.59,11.05
Conv B csr2csc(unsorted) 1.077
# Chebyshev2.mtx,2053,2053,18447,10261,8186,55.62,44.38,50.00,1,0.22,55.59,(-4|9)
$ Chebyshev2.mtx,57.43,4.85,4.88,14.53,62.51,0.70,35.74,0.81,1.39,12.11,0.54,0.28,1.33,1.08,0.42,0.99,0.54,0.25,0.37,0.20,34808,18465,8202,16378,0,0.67,0.04,0.00,0.36,0.03,0.00,0.29,0.25
Conv B csr2csc(unsorted) 1.173
# Chebyshev3.mtx,4101,4101,36879,20501,16378,55.59,44.41,50.00,1,0.11,55.57,(-4|9)
$ Chebyshev3.mtx,171.38,6.86,6.25,27.60,159.79,1.34,128.55,1.69,1.59,24.12,0.95,0.36,1.25,1.17,1.11,1.01,0.73,0.28,0.18,0.21,69624,36897,16394,32762,0,1.28,0.05,0.00,0.54,0.04,0.00,0.50,0.46
Conv B csr2csc(unsorted) 2.984
# heart1.mtx,3557,3557,1387773,257221,1130552,18.53,81.47,50.00,1,1.50,68.10,(-53|107)
$ heart1.mtx,523.08,462.96,441.89,483.73,478.27,27.44,65.51,41.47,34.63,79.45,364.93,1.15,5.58,2.98,13.90,7.06,17.78,6.15,3.47,15.33,5273361,536353,3452698,3451850,5261449,2.15,25.29,0.00,2.40,25.17,0.00,33.97,330.96
Conv B csr2csc(unsorted) 3.362
# matrix_9.mtx,103430,103430,2121550,851091,1270459,40.12,59.88,50.00,1,0.00,91.43,(-4|9)
$ matrix_9.mtx,951.19,1139.32,1103.04,1103.70,944.04,7.05,396.79,34.27,19.05,23.08,1059.37,2.30,8.15,3.36,26.89,11.67,24.66,8.39,1.22,4.63,12776186,1514932,5010545,5040842,9350192,3.49,3.56,0.00,3.79,3.59,0.00,515.81,543.56
Conv B csr2csc(unsorted) 6.167
# nd3k.mtx,9000,9000,3279690,416056,2863634,12.69,87.31,50.00,1,0.28,90.77,(-25|51)
$ nd3k.mtx,932.23,940.99,879.26,918.28,903.89,39.80,107.71,79.46,57.29,102.48,755.24,2.24,13.62,6.17,39.54,17.37,46.11,14.00,2.28,11.69,18491738,810306,8703773,8704022,18394266,4.50,35.30,0.00,4.62,35.30,0.00,93.07,662.16
Conv B csr2csc(unsorted) 12.738
# nd6k.mtx,18000,18000,6897316,830372,6066944,12.04,87.96,50.00,1,0.14,90.52,(-25|51)
$ nd6k.mtx,2100.05,2131.22,1986.23,2075.99,2043.00,82.57,234.48,175.88,119.69,222.19,1729.19,4.28,29.79,12.74,93.15,36.96,101.16,29.42,4.07,22.78,42198384,1614926,19013828,19013534,42000816,9.18,73.39,0.00,9.34,73.39,0.00,224.05,1505.14
Conv B csr2csc(unsorted) 12.782
# PR02R.mtx,161070,161070,8185136,2516403,5668733,30.74,69.26,50.00,1,0.01,67.93,(-11|23)
$ PR02R.mtx,469.54,707.08,515.68,498.06,455.44,50.94,159.66,209.03,109.69,104.85,280.61,6.83,31.15,12.78,157.90,58.56,114.29,40.61,7.38,38.61,30969453,4958988,29086357,28879863,28857650,12.84,38.10,0.00,13.26,37.87,0.00,66.47,214.14
Conv B csr2csc(unsorted) 3.114
# raefsky3.mtx,21200,21200,1488768,452560,1036208,30.40,69.60,50.00,1,0.05,92.84,(-11|23)
$ raefsky3.mtx,105.20,97.13,80.53,83.36,97.46,6.98,24.87,18.69,13.13,19.06,48.72,1.38,6.25,3.11,11.46,5.90,12.46,4.56,1.27,7.47,4053376,831300,2406140,2406074,3726592,2.14,4.84,0.00,2.39,4.83,0.00,8.44,40.28
Conv B csr2csc(unsorted) 5.830
# ramage02.mtx,16830,16830,2866352,419116,2447236,14.62,85.38,50.00,1,0.10,75.50,(-16|33)
$ ramage02.mtx,458.39,490.66,435.83,461.08,439.53,23.62,120.08,59.53,38.65,69.73,349.98,2.02,12.57,5.83,35.72,14.84,39.06,11.85,1.87,11.94,14592198,813008,7453575,7453513,14585674,4.21,19.41,0.00,4.38,19.43,0.00,41.73,308.24
Conv B csr2csc(unsorted) 0.907
# Sieber.mtx,2290,2290,14873,6866,8007,46.16,53.84,50.00,1,0.09,74.99,(-2|4)
$ Sieber.mtx,47.81,26.10,20.94,24.53,40.81,0.73,20.72,2.42,1.89,6.39,16.41,0.19,0.92,0.91,1.51,0.97,5.06,0.45,0.18,0.16,5244100,11440,12587,11446,5232667,0.71,0.02,0.00,0.89,0.02,0.00,2.61,13.80
Conv B csr2csc(unsorted) 4.066
# trdheim.mtx,22098,22098,1935324,429084,1506240,22.17,77.83,50.00,1,0.05,84.45,(-11|23)
$ trdheim.mtx,173.19,187.28,162.71,171.49,162.85,10.16,42.86,25.92,17.74,30.58,120.22,1.58,8.23,4.07,15.65,7.48,18.16,5.93,1.43,8.08,6746796,803600,3331486,3331474,6725628,2.72,7.45,0.00,2.84,7.42,0.00,13.04,107.18
Conv B csr2csc(unsorted) 3.543
# windscreen.mtx,22692,22692,1482390,187116,1295274,12.62,87.38,50.00,1,0.02,91.63,(-4|9)
$ windscreen.mtx,160.84,175.40,155.48,149.70,152.49,5.60,19.10,18.44,11.99,9.76,126.03,1.30,7.38,3.54,12.58,6.13,14.90,5.27,0.46,1.62,5613426,333684,2564918,2564894,5613426,2.64,2.95,0.00,2.91,2.95,0.00,13.00,113.03
